{
  "name": "",
  "css_prefix_text": "icon-",
  "css_use_suffix": false,
  "hinting": true,
  "units_per_em": 1000,
  "ascent": 850,
  "glyphs": [
    {
      "uid": "7b16b22168e762c88333f465da862098",
      "css": "ok",
      "code": 59393,
      "src": "websymbols"
    },
    {
      "uid": "994eaa764b3f30721f3839c64c390ce3",
      "css": "minus-circle",
      "code": 59392,
      "src": "websymbols"
    }
  ]
}