{
  "name": "",
  "css_prefix_text": "icon-",
  "css_use_suffix": false,
  "hinting": true,
  "units_per_em": 1000,
  "ascent": 850,
  "glyphs": [
    {
      "uid": "2c71ee1c65e1992ba32d5ffc5ee7f337",
      "css": "bag",
      "code": 59392,
      "src": "entypo"
    }
  ]
}